# Fdb version 3
["pdflatex"] 1621005500 "/media/huy/2Data/00.DATA/CV_latex/Huy CV/huyCV.tex" "/media/huy/2Data/00.DATA/CV_latex/Huy CV/huyCV.pdf" "huyCV" 1621005599
  "/etc/texmf/web2c/texmf.cnf" 1589413366 475 c0e671620eb5563b2130f56340a5fde8 ""
  "/media/huy/2Data/00.DATA/CV_latex/Huy CV/huyCV.aux" 1621005501 1198 c76dbdeed77b995440cf435c45974689 ""
  "/media/huy/2Data/00.DATA/CV_latex/Huy CV/huyCV.tex" 1621005599 5041 e7ec88009202437dbb8c07c4a06409ff ""
  "/usr/share/texlive/texmf-dist/fonts/map/fontname/texfonts.map" 1511824771 3332 103109f5612ad95229751940c61aada0 ""
  "/usr/share/texlive/texmf-dist/fonts/tfm/jknappen/ec/ecrm1095.tfm" 1480098696 3584 929cdff2b7a8c11bd4d49fd68cb0ae70 ""
  "/usr/share/texlive/texmf-dist/fonts/tfm/jknappen/ec/ecrm1440.tfm" 1480098696 3584 3169d30142b88a27d4ab0e3468e963a2 ""
  "/usr/share/texlive/texmf-dist/fonts/tfm/public/cm/cmr10.tfm" 1480098701 1296 45809c5a464d5f32c8f98ba97c1bb47f ""
  "/usr/share/texlive/texmf-dist/fonts/tfm/public/marvosym/umvs.tfm" 1480098712 1772 135d23849cb646acc6bb1ae8d73e3f78 ""
  "/usr/share/texlive/texmf-dist/fonts/tfm/vntex/vnr/vnr10.tfm" 1480098721 3980 abdf17ec2bc80e7408ecb3ef0a81faa4 ""
  "/usr/share/texlive/texmf-dist/fonts/type1/public/marvosym/marvosym.pfb" 1480098742 91705 188e103f30c94f64bce1570c4b989d07 ""
  "/usr/share/texlive/texmf-dist/tex/context/base/mkii/supp-pdf.mkii" 1480098806 71627 94eb9990bed73c364d7f53f960cc8c5b ""
  "/usr/share/texlive/texmf-dist/tex/generic/ifxetex/ifxetex.sty" 1480098815 1458 43ab4710dc82f3edeabecd0d099626b2 ""
  "/usr/share/texlive/texmf-dist/tex/generic/oberdiek/gettitlestring.sty" 1480098815 8237 3b62ef1f7e2c23a328c814b3893bc11f ""
  "/usr/share/texlive/texmf-dist/tex/generic/oberdiek/hobsub-generic.sty" 1517006633 185082 6c11d4e30ed78e2a12957b7e77030856 ""
  "/usr/share/texlive/texmf-dist/tex/generic/oberdiek/hobsub-hyperref.sty" 1480098815 70864 bcd5b216757bd619ae692a151d90085d ""
  "/usr/share/texlive/texmf-dist/tex/generic/oberdiek/ifluatex.sty" 1480098815 7324 2310d1247db0114eb4726807c8837a0e ""
  "/usr/share/texlive/texmf-dist/tex/generic/oberdiek/ifpdf.sty" 1490564930 1251 d170e11a3246c3392bc7f59595af42cb ""
  "/usr/share/texlive/texmf-dist/tex/generic/oberdiek/ifvtex.sty" 1480098815 6797 90b7f83b0ad46826bc16058b1e3d48df ""
  "/usr/share/texlive/texmf-dist/tex/generic/pgf/basiclayer/pgfcore.code.tex" 1480098816 1006 b103be0bfc8c1682ff1fa9760697a329 ""
  "/usr/share/texlive/texmf-dist/tex/generic/pgf/basiclayer/pgfcorearrows.code.tex" 1480098816 43226 167a99346bfe2676e3efcdde2d81fe45 ""
  "/usr/share/texlive/texmf-dist/tex/generic/pgf/basiclayer/pgfcoreexternal.code.tex" 1480098816 19302 4f089dc590e71f7331e6d5b5ea85273b ""
  "/usr/share/texlive/texmf-dist/tex/generic/pgf/basiclayer/pgfcoregraphicstate.code.tex" 1480098816 6068 edae1e768a7d8d8f0f00e953d2b0153e ""
  "/usr/share/texlive/texmf-dist/tex/generic/pgf/basiclayer/pgfcoreimage.code.tex" 1480098816 7041 a891ad72049e17c4e366c40ca37b0ccb ""
  "/usr/share/texlive/texmf-dist/tex/generic/pgf/basiclayer/pgfcorelayers.code.tex" 1480098816 4625 40c07e9f6f2f7c674704b3f2055560ce ""
  "/usr/share/texlive/texmf-dist/tex/generic/pgf/basiclayer/pgfcoreobjects.code.tex" 1480098816 2631 7eefa6cdbefd8d4e2bad7262cf1094cd ""
  "/usr/share/texlive/texmf-dist/tex/generic/pgf/basiclayer/pgfcorepathconstruct.code.tex" 1480098816 43477 81143b33d9ebafdeead07ede13372427 ""
  "/usr/share/texlive/texmf-dist/tex/generic/pgf/basiclayer/pgfcorepathprocessing.code.tex" 1480098816 17436 8d99d4113be311daf23deff86991ee7d ""
  "/usr/share/texlive/texmf-dist/tex/generic/pgf/basiclayer/pgfcorepathusage.code.tex" 1480098816 20772 c57e34db4aa7b1da013169d04b743eac ""
  "/usr/share/texlive/texmf-dist/tex/generic/pgf/basiclayer/pgfcorepatterns.code.tex" 1480098816 9641 711f0edc22c180a5caf168b6e8970057 ""
  "/usr/share/texlive/texmf-dist/tex/generic/pgf/basiclayer/pgfcorepoints.code.tex" 1480098816 34516 658a71478d21df554bce9d9cd436203a ""
  "/usr/share/texlive/texmf-dist/tex/generic/pgf/basiclayer/pgfcorequick.code.tex" 1480098816 3052 e5672c657232fd63b0a9853b0746297c ""
  "/usr/share/texlive/texmf-dist/tex/generic/pgf/basiclayer/pgfcorescopes.code.tex" 1480098816 16669 4ec6e40088fc6de6334b443fe2dc59f0 ""
  "/usr/share/texlive/texmf-dist/tex/generic/pgf/basiclayer/pgfcoreshade.code.tex" 1480098816 21541 4cd19f8ff7dd74d5aa7d803a6397af84 ""
  "/usr/share/texlive/texmf-dist/tex/generic/pgf/basiclayer/pgfcoretransformations.code.tex" 1480098816 19998 d77fef95c7369827753d17fd11be19c4 ""
  "/usr/share/texlive/texmf-dist/tex/generic/pgf/basiclayer/pgfcoretransparency.code.tex" 1480098816 8943 2e2495b057f8f0035b5568394d489963 ""
  "/usr/share/texlive/texmf-dist/tex/generic/pgf/frontendlayer/tikz/libraries/tikzlibrarytopaths.code.tex" 1480098816 11599 d694704a88e2f9007c996d3a6a4d629c ""
  "/usr/share/texlive/texmf-dist/tex/generic/pgf/frontendlayer/tikz/tikz.code.tex" 1480098816 176652 1c2926908e2b356d454795c35385d580 ""
  "/usr/share/texlive/texmf-dist/tex/generic/pgf/libraries/pgflibraryplothandlers.code.tex" 1480098816 32969 dbcfd5a7de6a0f7255c333ef60287d59 ""
  "/usr/share/texlive/texmf-dist/tex/generic/pgf/math/pgfmath.code.tex" 1480098816 454 9e9e7c99f4da4f41698be21eaef4938e ""
  "/usr/share/texlive/texmf-dist/tex/generic/pgf/math/pgfmathcalc.code.tex" 1480098816 13416 940ea6971d7a65dc440d3479939c66ae ""
  "/usr/share/texlive/texmf-dist/tex/generic/pgf/math/pgfmathfloat.code.tex" 1480098816 94097 62ac62cda46eb715560dc27f9ed6e8b1 ""
  "/usr/share/texlive/texmf-dist/tex/generic/pgf/math/pgfmathfunctions.base.code.tex" 1480098816 9375 5adc70f722abd29fc250d59e0694b548 ""
  "/usr/share/texlive/texmf-dist/tex/generic/pgf/math/pgfmathfunctions.basic.code.tex" 1480098816 22069 7c21c42b15718ce922f36235be360490 ""
  "/usr/share/texlive/texmf-dist/tex/generic/pgf/math/pgfmathfunctions.code.tex" 1480098816 8210 a7be5b52ef3d2c087b7dc3d52898b67e ""
  "/usr/share/texlive/texmf-dist/tex/generic/pgf/math/pgfmathfunctions.comparison.code.tex" 1480098816 3534 c7f28fbac13616513e513efe93b8569b ""
  "/usr/share/texlive/texmf-dist/tex/generic/pgf/math/pgfmathfunctions.integerarithmetics.code.tex" 1480098816 3167 7c9394e79aac27db96a92f9b2792b858 ""
  "/usr/share/texlive/texmf-dist/tex/generic/pgf/math/pgfmathfunctions.misc.code.tex" 1480098816 9289 261407875b9dbb0194691c3eb893610f ""
  "/usr/share/texlive/texmf-dist/tex/generic/pgf/math/pgfmathfunctions.random.code.tex" 1480098816 7078 946ddf4a7e57219b6afdbad98eb6731b ""
  "/usr/share/texlive/texmf-dist/tex/generic/pgf/math/pgfmathfunctions.round.code.tex" 1480098816 2688 139c6abc86761a6190c2f4bef5d752be ""
  "/usr/share/texlive/texmf-dist/tex/generic/pgf/math/pgfmathfunctions.trigonometric.code.tex" 1480098816 92284 dcf023dbaa84e6c50e11c2f79fe8cfa6 ""
  "/usr/share/texlive/texmf-dist/tex/generic/pgf/math/pgfmathparser.code.tex" 1480098816 35430 046e15fbb65e74d8f0e7945f99741fdb ""
  "/usr/share/texlive/texmf-dist/tex/generic/pgf/math/pgfmathutil.code.tex" 1480098816 7099 f44d505bae6c7c2b933cdd63441db4b9 ""
  "/usr/share/texlive/texmf-dist/tex/generic/pgf/modules/pgfmodulematrix.code.tex" 1480098816 20934 2328bd2e04520e1ab077ac4ee13b8935 ""
  "/usr/share/texlive/texmf-dist/tex/generic/pgf/modules/pgfmoduleplot.code.tex" 1480098816 16203 83cbe1220e389eeee283a6168f9a567b ""
  "/usr/share/texlive/texmf-dist/tex/generic/pgf/modules/pgfmoduleshapes.code.tex" 1480098816 42906 d54376d96df1a2ae2d33fb722236d8e9 ""
  "/usr/share/texlive/texmf-dist/tex/generic/pgf/systemlayer/pgf.cfg" 1480098816 978 15af626ebd3d4d790aac19170dac04f2 ""
  "/usr/share/texlive/texmf-dist/tex/generic/pgf/systemlayer/pgfsys-common-pdf.def" 1480098816 5437 d91f93ed61ecdc57e119849b2d784a0b ""
  "/usr/share/texlive/texmf-dist/tex/generic/pgf/systemlayer/pgfsys-pdftex.def" 1480098816 13507 809d848d9262638e1b1705a68a73c566 ""
  "/usr/share/texlive/texmf-dist/tex/generic/pgf/systemlayer/pgfsys.code.tex" 1480098816 35113 2ccc50c1c9573e4bac9230d030f9c67c ""
  "/usr/share/texlive/texmf-dist/tex/generic/pgf/systemlayer/pgfsysprotocol.code.tex" 1480098816 1983 b5994ebbcee17f1ba3d29bb1bd696fcf ""
  "/usr/share/texlive/texmf-dist/tex/generic/pgf/systemlayer/pgfsyssoftpath.code.tex" 1480098816 7881 d459d6057e13d10ce7a227ae44b7295e ""
  "/usr/share/texlive/texmf-dist/tex/generic/pgf/utilities/pgffor.code.tex" 1480098816 22211 d696ef78c12269178882d218b2cf191d ""
  "/usr/share/texlive/texmf-dist/tex/generic/pgf/utilities/pgfkeys.code.tex" 1480098816 36194 e194ef4e0b396b531a3891feb4b1cc22 ""
  "/usr/share/texlive/texmf-dist/tex/generic/pgf/utilities/pgfkeysfiltered.code.tex" 1480098816 33377 af391d6ad1bfcbe2278e191f48e43ba8 ""
  "/usr/share/texlive/texmf-dist/tex/generic/pgf/utilities/pgfrcs.code.tex" 1480098816 2536 a3b0529d815a2759ba157b56610a6377 ""
  "/usr/share/texlive/texmf-dist/tex/generic/pgf/utilities/pgfutil-common-lists.tex" 1480098816 6833 114eda2cf1d348e0e7e477a1a4dc1941 ""
  "/usr/share/texlive/texmf-dist/tex/generic/pgf/utilities/pgfutil-common.tex" 1480098816 16501 ab0135765e27b6b8dae047831fe84818 ""
  "/usr/share/texlive/texmf-dist/tex/generic/pgf/utilities/pgfutil-latex.def" 1480098816 5544 294baac9629ba59f675b1f2027ad7136 ""
  "/usr/share/texlive/texmf-dist/tex/generic/unicode-data/CaseFolding.txt" 1498600549 78161 7893b6e005c5a521319a0d12062ae122 ""
  "/usr/share/texlive/texmf-dist/tex/generic/unicode-data/SpecialCasing.txt" 1498600549 16830 e49d6f1fe536f43762ba1ecfe9e53e12 ""
  "/usr/share/texlive/texmf-dist/tex/generic/unicode-data/UnicodeData.txt" 1498600549 1735010 2a52f30695dcc821f0f224650552beaf ""
  "/usr/share/texlive/texmf-dist/tex/latex/base/fontenc.sty" 1492297155 4571 13977df0eda144b93597fc709035ad1f ""
  "/usr/share/texlive/texmf-dist/tex/latex/base/ifthen.sty" 1480098821 5159 a08c9bbd48fc492f15b22e458bef961f ""
  "/usr/share/texlive/texmf-dist/tex/latex/base/inputenc.sty" 1480098821 4732 d63eda807ac82cca2ca8488efd31a966 ""
  "/usr/share/texlive/texmf-dist/tex/latex/base/omsenc.dfu" 1487721667 2004 ac51aeac484f08c01026120d62677eca ""
  "/usr/share/texlive/texmf-dist/tex/latex/base/ot1enc.dfu" 1487721667 3181 1cb3e9ad01f4a01127b2ffd821bfeec7 ""
  "/usr/share/texlive/texmf-dist/tex/latex/base/size11.clo" 1480098821 8308 f91506bb4df6d8527331f7bbeaf0e63c ""
  "/usr/share/texlive/texmf-dist/tex/latex/base/t1enc.def" 1492297155 10006 a90ba4035cf778f32f424e297d92e235 ""
  "/usr/share/texlive/texmf-dist/tex/latex/base/t1enc.dfu" 1487721667 11255 9d97362866549d3d3c994b5f28d1b9b5 ""
  "/usr/share/texlive/texmf-dist/tex/latex/base/utf8.def" 1487721667 7784 325a2a09984cb5c4ff230f9867145ad3 ""
  "/usr/share/texlive/texmf-dist/tex/latex/colortbl/colortbl.sty" 1480098825 10607 9635c8e2bffccf182429bfdea9b665a5 ""
  "/usr/share/texlive/texmf-dist/tex/latex/etoolbox/etoolbox.sty" 1518389458 43862 d90315ae4a46ef887a38b4ccba021f91 ""
  "/usr/share/texlive/texmf-dist/tex/latex/fancyhdr/fancyhdr.sty" 1498861448 10663 d7fcc0dc4f35e8998b8cfeef8407d37d ""
  "/usr/share/texlive/texmf-dist/tex/latex/geometry/geometry.sty" 1480098829 40502 e003406220954b0716679d7928aedd8a ""
  "/usr/share/texlive/texmf-dist/tex/latex/graphics-cfg/color.cfg" 1480098830 1213 620bba36b25224fa9b7e1ccb4ecb76fd ""
  "/usr/share/texlive/texmf-dist/tex/latex/graphics-cfg/graphics.cfg" 1480098830 1224 978390e9c2234eab29404bc21b268d1e ""
  "/usr/share/texlive/texmf-dist/tex/latex/graphics-def/pdftex.def" 1515537368 17334 520b9b85ad8a2a48eda3f643e27a5179 ""
  "/usr/share/texlive/texmf-dist/tex/latex/graphics/graphics.sty" 1498427532 15275 7d676729b1bedd3e7f3c6717affb366c ""
  "/usr/share/texlive/texmf-dist/tex/latex/graphics/graphicx.sty" 1498427532 9066 649f2ccf62888e3d8c3e57256b70b8e1 ""
  "/usr/share/texlive/texmf-dist/tex/latex/graphics/keyval.sty" 1480098830 2594 d18d5e19aa8239cf867fa670c556d2e9 ""
  "/usr/share/texlive/texmf-dist/tex/latex/graphics/trig.sty" 1480098830 3980 0a268fbfda01e381fa95821ab13b6aee ""
  "/usr/share/texlive/texmf-dist/tex/latex/hyperref/hpdftex.def" 1518041854 51699 9069fc983fff0db91d59a15af144ad62 ""
  "/usr/share/texlive/texmf-dist/tex/latex/hyperref/hyperref.sty" 1518041854 234088 2c849389d62d41c593d9f5176c4116ab ""
  "/usr/share/texlive/texmf-dist/tex/latex/hyperref/nameref.sty" 1480098831 12949 81e4e808884a8f0e276b69410e234656 ""
  "/usr/share/texlive/texmf-dist/tex/latex/hyperref/pd1enc.def" 1518041854 14098 4e70bf396c7c265bd8b0e5cab3fd3d4d ""
  "/usr/share/texlive/texmf-dist/tex/latex/hyperref/puenc.def" 1518041854 122411 10b605a58a28bbe5d61db37da4a85beb ""
  "/usr/share/texlive/texmf-dist/tex/latex/l3kernel/expl3-code.tex" 1519422854 865979 4e627d13dfa51060cef916f5bf16b57a ""
  "/usr/share/texlive/texmf-dist/tex/latex/l3kernel/expl3.sty" 1519422854 9854 30dd9ffac9577d887036852ef4c7ccc0 ""
  "/usr/share/texlive/texmf-dist/tex/latex/l3kernel/l3pdfmode.def" 1519422854 12836 6f78fd4e4ede5f794b4e9523f8e11191 ""
  "/usr/share/texlive/texmf-dist/tex/latex/l3packages/xparse/xparse.sty" 1519337871 76828 accb53d91c291d3ec67841b8989ca15c ""
  "/usr/share/texlive/texmf-dist/tex/latex/latexconfig/epstopdf-sys.cfg" 1480098833 678 4792914a8f45be57bb98413425e4c7af ""
  "/usr/share/texlive/texmf-dist/tex/latex/latexconfig/hyperref.cfg" 1480098833 235 6031e5765137be07eed51a510b2b8fb7 ""
  "/usr/share/texlive/texmf-dist/tex/latex/marvosym/umvs.fd" 1480098833 111 395c88825a74c0d7a4afff69645f4d03 ""
  "/usr/share/texlive/texmf-dist/tex/latex/microtype/microtype-pdftex.def" 1516054892 48846 b8c9ed2ca71a7e344e0f79f738d33d61 ""
  "/usr/share/texlive/texmf-dist/tex/latex/microtype/microtype.cfg" 1516054892 24263 58b62b9b15af10c2a301a884405289a4 ""
  "/usr/share/texlive/texmf-dist/tex/latex/microtype/microtype.sty" 1516054892 71031 8c1efead07338247d562f79303165b66 ""
  "/usr/share/texlive/texmf-dist/tex/latex/microtype/mt-cmr.cfg" 1516054892 22870 180ea2dc1e81d6b0ff570aa0250865ae ""
  "/usr/share/texlive/texmf-dist/tex/latex/microtype/mt-mvs.cfg" 1516054892 2318 8581610442e15587759abf7b2ce9a857 ""
  "/usr/share/texlive/texmf-dist/tex/latex/moderncv/moderncv.cls" 1480098835 30297 ad584226c88e6533f6016194ced2d15c ""
  "/usr/share/texlive/texmf-dist/tex/latex/moderncv/moderncvbodyi.sty" 1480098835 7263 b0eec674e8a364780faf2f7d5efa2dbe ""
  "/usr/share/texlive/texmf-dist/tex/latex/moderncv/moderncvcollection.sty" 1480098835 3390 d797a6d60ef49f5acd2d573a9a4ba418 ""
  "/usr/share/texlive/texmf-dist/tex/latex/moderncv/moderncvcolorblue.sty" 1480098835 1009 6fe12a591a5df448729fbe772069c038 ""
  "/usr/share/texlive/texmf-dist/tex/latex/moderncv/moderncvcompatibility.sty" 1480098835 4245 488123376842509883db6abc4701fc93 ""
  "/usr/share/texlive/texmf-dist/tex/latex/moderncv/moderncvheadi.sty" 1480098835 8799 be88c99386e39cd083925c2f0ad4ffec ""
  "/usr/share/texlive/texmf-dist/tex/latex/moderncv/moderncviconsmarvosym.sty" 1480098835 12199 381650bac246f1d9ad323102095c8284 ""
  "/usr/share/texlive/texmf-dist/tex/latex/moderncv/moderncvstyleclassic.sty" 1480098835 1964 09e7a22625a7ab6a76c5e546d8d554f1 ""
  "/usr/share/texlive/texmf-dist/tex/latex/moderncv/tweaklist.sty" 1480098835 1966 8ce3a021c0bc6369db88faeddf828d71 ""
  "/usr/share/texlive/texmf-dist/tex/latex/ms/everyshi.sty" 1480098835 3878 6aa7c08ff2621006e0603349e40a30a8 ""
  "/usr/share/texlive/texmf-dist/tex/latex/oberdiek/auxhook.sty" 1480098836 3834 4363110eb0ef1eb2b71c8fcbcdb6c357 ""
  "/usr/share/texlive/texmf-dist/tex/latex/oberdiek/epstopdf-base.sty" 1480098836 12095 5337833c991d80788a43d3ce26bd1c46 ""
  "/usr/share/texlive/texmf-dist/tex/latex/oberdiek/grfext.sty" 1480098836 7075 2fe3d848bba95f139de11ded085e74aa ""
  "/usr/share/texlive/texmf-dist/tex/latex/oberdiek/kvoptions.sty" 1480098836 22417 1d9df1eb66848aa31b18a593099cf45c ""
  "/usr/share/texlive/texmf-dist/tex/latex/oberdiek/rerunfilecheck.sty" 1480098836 9581 023642318cef9f4677efe364de1e2a27 ""
  "/usr/share/texlive/texmf-dist/tex/latex/pgf/basiclayer/pgf.sty" 1480098837 1197 8a80cdde14696a9198f1793a55dcf332 ""
  "/usr/share/texlive/texmf-dist/tex/latex/pgf/basiclayer/pgfcore.sty" 1480098837 410 5bf12ea7330e5f12c445332a4fe9a263 ""
  "/usr/share/texlive/texmf-dist/tex/latex/pgf/compatibility/pgfcomp-version-0-65.sty" 1480098837 21115 facf03b7dbe5ea2f5f1dce1ac84b5d05 ""
  "/usr/share/texlive/texmf-dist/tex/latex/pgf/compatibility/pgfcomp-version-1-18.sty" 1480098837 1091 d9163d29def82ee90370c8a63667742c ""
  "/usr/share/texlive/texmf-dist/tex/latex/pgf/frontendlayer/tikz.sty" 1480098837 339 592cf35cba3d400082b8a9a5d0199d70 ""
  "/usr/share/texlive/texmf-dist/tex/latex/pgf/math/pgfmath.sty" 1480098837 306 0796eafca5e159e6ec2167a6d22d81b1 ""
  "/usr/share/texlive/texmf-dist/tex/latex/pgf/systemlayer/pgfsys.sty" 1480098837 443 0b2e781830192df35c0fd357cf13e26e ""
  "/usr/share/texlive/texmf-dist/tex/latex/pgf/utilities/pgffor.sty" 1480098837 348 8927fde343487e003b01a4c2ca34073b ""
  "/usr/share/texlive/texmf-dist/tex/latex/pgf/utilities/pgfkeys.sty" 1480098837 274 4cad6e665cc93ac2ac979039a94fa1e1 ""
  "/usr/share/texlive/texmf-dist/tex/latex/pgf/utilities/pgfrcs.sty" 1480098837 325 2bcd023400636339210573e2b3ee298b ""
  "/usr/share/texlive/texmf-dist/tex/latex/tools/array.sty" 1485129666 12396 d41f82b039f900e95f351e54ae740f31 ""
  "/usr/share/texlive/texmf-dist/tex/latex/tools/calc.sty" 1480098841 10214 d03d065f799d54f6b7e9b175f8d84279 ""
  "/usr/share/texlive/texmf-dist/tex/latex/url/url.sty" 1480098842 12796 8edb7d69a20b857904dd0ea757c14ec9 ""
  "/usr/share/texlive/texmf-dist/tex/latex/vntex/t5cmr.fd" 1480098843 1333 ab1c3d512aa3d88df568aed3641db58f ""
  "/usr/share/texlive/texmf-dist/tex/latex/vntex/t5enc.def" 1480098843 21986 ccb3b8f7cc27fbd61b3daabbbb82ad3f ""
  "/usr/share/texlive/texmf-dist/tex/latex/vntex/t5enc.dfu" 1480098843 13949 387dd4fa58aea5f873839c93430fffed ""
  "/usr/share/texlive/texmf-dist/tex/latex/vntex/vietnam.sty" 1480098843 2477 91784aa2c9213f74609391e3cae65a13 ""
  "/usr/share/texlive/texmf-dist/tex/latex/vntex/vncaps.tex" 1480098843 3273 a55ebdb07413d2fea580f210e3c0b252 ""
  "/usr/share/texlive/texmf-dist/tex/latex/xcolor/xcolor.sty" 1480098843 55589 34128738f682d033422ca125f82e5d62 ""
  "/usr/share/texlive/texmf-dist/web2c/texmf.cnf" 1520210507 32485 c64754543d8ac501bea6e75e209ea521 ""
  "/usr/share/texmf/fonts/enc/dvips/lm/lm-mathit.enc" 1254938640 2405 5dcf2c1b967ee25cc46c58cd52244aed ""
  "/usr/share/texmf/fonts/enc/dvips/lm/lm-rm.enc" 1254938640 2327 9d6df24f9c4f7368395224341a95523a ""
  "/usr/share/texmf/fonts/enc/dvips/lm/lm-t5.enc" 1254938640 2902 39ef7ea122fd143131d26a653f4643ee ""
  "/usr/share/texmf/fonts/tfm/public/lm/lmex10.tfm" 1254938640 992 ce925c9346c7613270a79afbee98c070 ""
  "/usr/share/texmf/fonts/tfm/public/lm/lmmi10.tfm" 1254938640 1528 6d36b2385e0ca062a654de6ac59cb34f ""
  "/usr/share/texmf/fonts/tfm/public/lm/lmmi5.tfm" 1254938640 1508 198f5b7b99b5769126de3a533f6fc334 ""
  "/usr/share/texmf/fonts/tfm/public/lm/lmmi6.tfm" 1254938640 1512 94a3fd88c6f27dbd9ecb46987e297a4e ""
  "/usr/share/texmf/fonts/tfm/public/lm/lmmi7.tfm" 1254938640 1528 d5b028dd23da623848ef0645c96a1ed7 ""
  "/usr/share/texmf/fonts/tfm/public/lm/lmmi8.tfm" 1254938640 1520 a3fe5596932db2db2cbda300920dd4e9 ""
  "/usr/share/texmf/fonts/tfm/public/lm/lmsy10.tfm" 1254938640 1308 02cc510f9dd6012e5815d0c0ffbf6869 ""
  "/usr/share/texmf/fonts/tfm/public/lm/lmsy5.tfm" 1254938640 1296 54ed1a711e2303d5282575278e3620b0 ""
  "/usr/share/texmf/fonts/tfm/public/lm/lmsy6.tfm" 1254938640 1300 b0605d44c16c22d99dc001808e4f24ea ""
  "/usr/share/texmf/fonts/tfm/public/lm/lmsy7.tfm" 1254938640 1304 32f22a15acc296b2a4e15698403dcb88 ""
  "/usr/share/texmf/fonts/tfm/public/lm/lmsy8.tfm" 1254938640 1304 cdc9a17df9ef0d2dc320eff37bbab1c4 ""
  "/usr/share/texmf/fonts/tfm/public/lm/rm-lmr10.tfm" 1254938640 11868 4f81e9b6033c032bdaf9884f4d7ef412 ""
  "/usr/share/texmf/fonts/tfm/public/lm/rm-lmr5.tfm" 1254938640 11804 aefb10c002e6492c25236524a447f969 ""
  "/usr/share/texmf/fonts/tfm/public/lm/rm-lmr6.tfm" 1254938640 11836 e3b6ce3e601aec94f64a536e7f4224d5 ""
  "/usr/share/texmf/fonts/tfm/public/lm/rm-lmr7.tfm" 1254938640 11852 5a9022f105fd1ee2797df861e79ae9a0 ""
  "/usr/share/texmf/fonts/tfm/public/lm/rm-lmr8.tfm" 1254938640 11864 309fd7f43e4a0ba39f6f7644d76e8edf ""
  "/usr/share/texmf/fonts/tfm/public/lm/t5-lmr10.tfm" 1254938640 21100 164585fd17f1ac9cc5e6c58d0ba511df ""
  "/usr/share/texmf/fonts/tfm/public/lm/t5-lmss10.tfm" 1254938640 20420 13f440f131b48298e574edf6848f3e50 ""
  "/usr/share/texmf/fonts/tfm/public/lm/t5-lmss12.tfm" 1254938640 20460 a6700a329de3bde93614632ccb384c54 ""
  "/usr/share/texmf/fonts/tfm/public/lm/t5-lmss17.tfm" 1254938640 20484 1f9c8b5508e85627d04595fd9a80d6ac ""
  "/usr/share/texmf/fonts/tfm/public/lm/t5-lmssbx10.tfm" 1254938640 20424 b1e01c2b65134839535d6d3dc1eaecd0 ""
  "/usr/share/texmf/fonts/tfm/public/lm/t5-lmsso10.tfm" 1254938640 20584 1a06f3ad2eb1316f76aa3e5e3bb1e5d6 ""
  "/usr/share/texmf/fonts/tfm/public/lm/t5-lmsso17.tfm" 1254938640 20616 d450db5637595153cab0e0b10b00edf3 ""
  "/usr/share/texmf/fonts/tfm/public/lm/t5-lmtt10.tfm" 1254938640 1352 8daa8b354489e09c1201686d1f1464d0 ""
  "/usr/share/texmf/fonts/type1/public/lm/lmmi10.pfb" 1254938640 30388 702fae6a5f0e6e9c48a1d872b442ffcf ""
  "/usr/share/texmf/fonts/type1/public/lm/lmr8.pfb" 1254938640 122174 a7a08406857c9530a0320a2517f60370 ""
  "/usr/share/texmf/fonts/type1/public/lm/lmss10.pfb" 1254938640 97408 f595704ec2a07246c2d6f7b602587452 ""
  "/usr/share/texmf/fonts/type1/public/lm/lmss12.pfb" 1254938640 96107 daf52840b555e3b38f9679b629b5e2df ""
  "/usr/share/texmf/fonts/type1/public/lm/lmss17.pfb" 1254938640 97155 77b0a2ea02ee9c950117adae5f41f9c9 ""
  "/usr/share/texmf/fonts/type1/public/lm/lmssbx10.pfb" 1254938640 119663 e82fa1a58f98ccd89bdbd77311ac9cf1 ""
  "/usr/share/texmf/fonts/type1/public/lm/lmsso10.pfb" 1254938640 108953 1f7b36ba493bc956ac3c5eab8852ab76 ""
  "/usr/share/texmf/fonts/type1/public/lm/lmsso17.pfb" 1254938640 107277 12bb06b4f1b5546fd2b623f476f51ecb ""
  "/usr/share/texmf/fonts/type1/public/lm/lmtt10.pfb" 1254938640 113227 1010e11451afc2822c95dae77c390042 ""
  "/usr/share/texmf/tex/latex/lm/lmodern.sty" 1256929440 1606 c17281c7cff2bbd7ff0173e1433487ec ""
  "/usr/share/texmf/tex/latex/lm/omllmm.fd" 1256929440 888 44447a3a3af84a22454ef89500942d93 ""
  "/usr/share/texmf/tex/latex/lm/omslmsy.fd" 1256929440 805 af340a8260c447aa315cfc740ff0152f ""
  "/usr/share/texmf/tex/latex/lm/omxlmex.fd" 1256929440 566 a94661f7b66063f191960bb7935b6ba2 ""
  "/usr/share/texmf/tex/latex/lm/ot1lmr.fd" 1256929440 1880 bae7b659316f7344a86218ad38b01d91 ""
  "/usr/share/texmf/tex/latex/lm/t5lmr.fd" 1256929440 1865 6c9730e486a4fd3e11ba93e1859db906 ""
  "/usr/share/texmf/tex/latex/lm/t5lmss.fd" 1256929440 1639 566ed2c6fb3a04b034ee2c189dc4ba0c ""
  "/usr/share/texmf/tex/latex/lm/t5lmtt.fd" 1256929440 2681 867586bf6f85c9414be88edac23421a7 ""
  "/usr/share/texmf/web2c/texmf.cnf" 1520210507 32485 c64754543d8ac501bea6e75e209ea521 ""
  "/var/lib/texmf/fonts/map/pdftex/updmap/pdftex.map" 1589413389 2700761 ac0584cc9514ab21918550a6948c4ee2 ""
  "/var/lib/texmf/web2c/pdftex/pdflatex.fmt" 1589413416 4126854 50f066d3d6c4d10abea9a5a13da264d4 ""
  "huyCV.aux" 1621005501 1198 c76dbdeed77b995440cf435c45974689 ""
  "huyCV.out" 1621005501 877 2139ef6229756b61151255177deb562b ""
  "huyCV.tex" 1621005599 5041 e7ec88009202437dbb8c07c4a06409ff ""
  (generated)
  "huyCV.aux"
  "huyCV.out"
  "/media/huy/2Data/00.DATA/CV_latex/Huy CV/huyCV.pdf"
  "huyCV.log"
  "/media/huy/2Data/00.DATA/CV_latex/Huy CV/huyCV.log"
  "huyCV.pdf"
