\BOOKMARK [1][]{section*.1}{\376\377\000C\000a\000r\000e\000e\000r\000\040\000O\000b\000j\000e\000c\000t\000i\000v\000e}{}% 1
\BOOKMARK [1][]{section*.2}{\376\377\000K\000n\000o\000w\000l\000e\000d\000g\000e\000\040\000\046\000\040\000P\000r\000o\000f\000e\000s\000s\000o\000n\000a\000l\000\040\000s\000k\000i\000l\000l\000s}{}% 2
\BOOKMARK [1][]{section*.3}{\376\377\000W\000o\000r\000k\000\040\000e\000x\000p\000e\000r\000i\000e\000n\000c\000e}{}% 3
\BOOKMARK [1][]{section*.4}{\376\377\000E\000d\000u\000c\000a\000t\000i\000o\000n}{}% 4
\BOOKMARK [1][]{section*.5}{\376\377\000P\000u\000b\000l\000i\000c\000a\000t\000i\000o\000n\000s}{}% 5
\BOOKMARK [1][]{section*.6}{\376\377\000A\000w\000a\000r\000d\000s}{}% 6
\BOOKMARK [1][]{section*.7}{\376\377\000L\000a\000n\000g\000u\000a\000g\000e\000s}{}% 7
\BOOKMARK [1][]{section*.8}{\376\377\000O\000t\000h\000e\000r\000s}{}% 8
